waveforms/FPGA_L5_mux_Makov-vaOO_PZ-5-01_A01_20260614_193427.vcd
$date
	Sun Jun 14 19:34:27 2026
$end
$version
	Icarus Verilog
$end
$timescale
	1ps
$end
$scope module tb_mux2to1 $end
$var wire 1 ! y $end
$var reg 1 " d0 $end
$var reg 1 # d1 $end
$var reg 1 $ sel $end
$var integer 32 % errors [31:0] $end
$var integer 32 & test_num [31:0] $end
$scope module uut $end
$var wire 1 " d0 $end
$var wire 1 # d1 $end
$var wire 1 $ sel $end
$var wire 1 ! y $end
$upscope $end
$scope task check $end
$var reg 1 ' expected_y $end
$var reg 1 ( test_d0 $end
$var reg 1 ) test_d1 $end
$var reg 1 * test_sel $end
$upscope $end
$upscope $end
$enddefinitions $end
$comment Show the parameter values. $end
$dumpall
$end
#0
$dumpvars
0*
0)
0(
0'
b0 &
b0 %
0$
0#
0"
0!
$end
#10000
1"
1'
1(
b1 &
#20000
1#
0"
0'
1)
0(
b1 %
b10 &
#30000
1"
1'
1(
b11 &
#40000
1$
0#
0"
0'
1*
0)
0(
b10 %
b100 &
#50000
1"
1(
b101 &
#60000
1#
0"
1'
1)
0(
b110 &
#70000
1"
1(
b11 %
b111 &
#80000
b100 %
b1000 &
