waveforms/FPGA_L5_mux_Makov-vaOO_PZ-5-01_A05_20260621_172653.vcd
$date
	Sun Jun 21 17:26:54 2026
$end
$version
	Icarus Verilog
$end
$timescale
	1ps
$end
$scope module tb_mux2to1 $end
$var reg 1 ! d0 $end
$upscope $end
$scope module tb_mux2to1 $end
$var reg 1 " d1 $end
$upscope $end
$scope module tb_mux2to1 $end
$var reg 1 # sel $end
$upscope $end
$scope module tb_mux2to1 $end
$var wire 1 $ y $end
$upscope $end
$enddefinitions $end
$comment Show the parameter values. $end
$dumpall
$end
#0
$dumpvars
0$
0#
0"
0!
$end
#10000
1!
#20000
1"
0!
#30000
1!
#40000
1#
0"
0!
#50000
1!
#60000
1"
0!
#70000
1!
